simulation/qsim/Thunderbird_Turn_Signal.msim.vcd
$comment
	File created using the following command:
		vcd file Thunderbird_Turn_Signal.msim.vcd -direction
$end
$date
	Mon Dec 03 22:18:49 2018
$end
$version
	ModelSim Version 10.5b
$end
$timescale
	1ps
$end

$scope module Thunderbird_Turn_Signal_vlg_vec_tst $end
$var reg 1 ! clk $end
$var reg 1 " left_sw $end
$var reg 1 # reset $end
$var reg 1 $ right $end
$var wire 1 % RA $end
$var wire 1 & RB $end
$var wire 1 ' RC $end
$var wire 1 ( la $end
$var wire 1 ) lb $end
$var wire 1 * lc $end
$var wire 1 + next_la $end
$var wire 1 , next_lb $end
$var wire 1 - next_lc $end

$scope module i1 $end
$var wire 1 . gnd $end
$var wire 1 / vcc $end
$var wire 1 0 unknown $end
$var tri1 1 1 devclrn $end
$var tri1 1 2 devpor $end
$var tri1 1 3 devoe $end
$var wire 1 4 reset~input_o $end
$var wire 1 5 right~input_o $end
$var wire 1 6 la~output_o $end
$var wire 1 7 lb~output_o $end
$var wire 1 8 lc~output_o $end
$var wire 1 9 RA~output_o $end
$var wire 1 : RB~output_o $end
$var wire 1 ; RC~output_o $end
$var wire 1 < next_la~output_o $end
$var wire 1 = next_lb~output_o $end
$var wire 1 > next_lc~output_o $end
$var wire 1 ? clk~input_o $end
$var wire 1 @ clk~inputclkctrl_outclk $end
$var wire 1 A left_sw~input_o $end
$var wire 1 B next_la~1_combout $end
$var wire 1 C ff_lb|latch1|Q~combout $end
$var wire 1 D ff_lb|latch2|Q~combout $end
$var wire 1 E next_lc~0_combout $end
$var wire 1 F ff_lc|latch1|Q~combout $end
$var wire 1 G ff_lc|latch2|Q~combout $end
$var wire 1 H next_la~0_combout $end
$var wire 1 I ff_la|latch1|Q~combout $end
$var wire 1 J ff_la|latch2|Q~combout $end
$upscope $end
$upscope $end
$enddefinitions $end
#0
$dumpvars
0!
0"
x#
x$
0%
0&
0'
x(
x)
x*
0+
0,
0-
0.
1/
x0
11
12
13
x4
x5
x6
x7
x8
09
0:
0;
0<
0=
0>
0?
0@
0A
0B
0C
xD
0E
0F
xG
0H
0I
xJ
$end
#2500
1!
1?
1@
0J
0G
0D
07
08
06
0(
0*
0)
#5000
1"
0!
1A
0?
0@
1E
1>
1F
1-
#7500
1!
1?
1@
1G
18
1*
1B
1=
1,
#10000
0!
0?
0@
1C
#12500
1!
1?
1@
1D
17
1)
1H
1<
1+
#15000
0!
0?
0@
1I
#17500
1!
1?
1@
1J
16
1(
0H
0E
0B
0=
0>
0<
0+
0-
0,
#20000
0!
0?
0@
0I
0F
0C
#22500
1!
1?
1@
0J
0G
0D
07
08
06
0(
0*
0)
1E
1>
1-
#25000
0!
0?
0@
1F
#27500
1!
1?
1@
1G
18
1*
1B
1=
1,
